Changes in Fv/Fm in elevated nutrients and heat stress
…
    # Remove baseline values
      YII.data<-subset(YII.data, Days>-1)
    # Remove recovery values
      YII.data<-subset(YII.data, Days<112)
      # write.csv(YII.data, "Outputs/Experiment_YII_data.csv", row.names = F)  
    # YII.Wide<- reshape(YII.data, idvar = "Fragment", timevar = "Days", direction = "wide")
      
      Spp.fragments<-YII.data %>% 
        group_by(Spp, Genotype, Treatment, Replicate) %>% count(Fragment)
      Spp.fragments

## # A tibble: 354 x 6
## # Groups:   Spp, Genotype, Treatment, Replicate [102]
##    Spp   Genotype Treatment Replicate Fragment     n
##    <fct> <fct>    <fct>     <chr>     <chr>    <int>
##  1 Ac    G_48     A         R1        Ac_176      17
##  2 Ac    G_48     A         R1        Ac_182      17
##  3 Ac    G_48     A         R1        Ac_189       9
##  4 Ac    G_48     A         R1        Ac_281      17
##  5 Ac    G_48     A         R1        Ac_287      17
##  6 Ac    G_48     A         R2        Ac_179      17
##  7 Ac    G_48     A         R2        Ac_186      17
##  8 Ac    G_48     A         R2        Ac_277      17
##  9 Ac    G_48     A         R2        Ac_284      17
## 10 Ac    G_48     A         R2        Ac_290       9
## #  with 344 more rows
…
